User,User Id,Category Name,Project Name,Project Id,R&D ID,Hours Logged,9/1/2022,9/2/2022,9/3/2022,9/4/2022,9/5/2022,9/6/2022,9/7/2022,9/8/2022,9/9/2022,9/10/2022,9/11/2022,9/12/2022,9/13/2022,9/14/2022,9/15/2022,9/16/2022,9/17/2022,9/18/2022,9/19/2022,9/20/2022,9/21/2022,9/22/2022,9/23/2022,9/24/2022,9/25/2022,9/26/2022,9/27/2022,9/28/2022,9/29/2022,9/30/2022
Adam Chamberlin,1,Time Off,Time Off,14,,64,8,8,0,0,8,8,8,8,8,0,0,0,0,0,0,0,0,0,0,0,0,0,0,0,0,0,0,0,0,0
Adam Chamberlin,1,Operation  Variant Assessment,Variant Assessment,103,,4,0,0,0,0,0,0,0,0,0,0,0,0,0,0,0,1,0,0,1,0,1,0,0,0,0,0,0,1,0,0
Adam Chamberlin,1,Operating  Training/Admin,Other tasks,662,,8,0,0,0,0,0,0,0,0,0,0,0,1,0,1,1,1,0,0,0,1,1,0,0,0,0,1,1,0,0,0
Adam Chamberlin,1,Operation  Clinical,Autocuration,682,15-0256  ,1,0,0,0,0,0,0,0,0,0,0,0,0,0,0,0,0,0,0,0,0,0,0,0,0,0,0,0,1,0,0
Adam Chamberlin,1,Operation  Variant Assessment,Biostat Support for variant assessment operation,833,50-0267,2,0,0,0,0,0,0,0,0,0,0,0,0,1,0,0,0,0,0,0,0,0,0,0,0,0,0,0,1,0,0
Adam Chamberlin,1,Operating  Training/Admin,Management Related Tasks,848,,25,0,0,0,0,0,0,0,0,0,0,0,2,1,3,3,2,0,0,1,2,2,1,0,0,0,1,3,1,1,2
Adam Chamberlin,1,RD  Research Collaboration,PPMI IDx Project,856,50-0312,3,0,0,0,0,0,0,0,0,0,0,0,0,1,1,0,0,0,0,0,0,0,0,0,0,0,1,0,0,0,0
Adam Chamberlin,1,RD  Research Collaboration,Precede (lpWGS using GLIMPSE for Imputation),857,,1,0,0,0,0,0,0,0,0,0,0,0,0,0,0,1,0,0,0,0,0,0,0,0,0,0,0,0,0,0,0
Adam Chamberlin,1,Operating  Training/Admin,Project coordination,871,,29,0,0,0,0,0,0,0,0,0,0,0,0,0,1,0,1,0,0,1,1,1,2,4,0,0,4,3,2,4,5
Adam Chamberlin,1,Operating  Training/Admin,Meetings,875,,21,0,0,0,0,0,0,0,0,0,0,0,2,1,2,2,2,0,0,2,2,1,2,3,0,0,0,1,1,0,0
Adam Chamberlin,1,Operating  Training/Admin,Building 15 Closure,879,,2,0,0,0,0,0,0,0,0,0,0,0,1,1,0,0,0,0,0,0,0,0,0,0,0,0,0,0,0,0,0
Adam Chamberlin,1,Operation  IT,Sbio Pipeline Improvements,887,,3,0,0,0,0,0,0,0,0,0,0,0,1,1,0,0,0,0,0,0,0,0,0,0,0,0,0,0,1,0,0
Adam Chamberlin,1,RD  Computational Solutions,CARE KB development,888,,2,0,0,0,0,0,0,0,0,0,0,0,0,1,0,0,0,0,0,1,0,0,0,0,0,0,0,0,0,0,0
Adam Chamberlin,1,Operation  Clinical,Clinical Operations Support,889,,2,0,0,0,0,0,0,0,0,0,0,0,0,0,0,0,0,0,0,1,1,0,0,0,0,0,0,0,0,0,0
Adam Chamberlin,1,RD  Research Collaboration,Support Evidence Strategy,890,,2,0,0,0,0,0,0,0,0,0,0,0,0,0,0,1,0,0,0,0,0,0,0,0,0,0,0,0,0,1,0
Adam Chamberlin,1,RD  Computational Solutions,HPO syndrome score - Soft. Dev.,900,60-0403,1,0,0,0,0,0,0,0,0,0,0,0,0,0,0,0,0,0,0,0,0,0,1,0,0,0,0,0,0,0,0
Adam Chamberlin,1,Operation  IT,Autocuration - Soft. Dev.,901,60-0404,2,0,0,0,0,0,0,0,0,0,0,0,0,0,0,0,0,0,0,0,0,1,1,0,0,0,0,0,0,0,0
Adam Chamberlin,1,RD  Computational Solutions,Phenom/ART/Capture,903,,9,0,0,0,0,0,0,0,0,0,0,0,1,1,0,0,1,0,0,1,1,1,1,1,0,0,0,0,0,1,0
Adam Chamberlin,1,RD  Computational Solutions,Document Tagging Solution,922,,3,0,0,0,0,0,0,0,0,0,0,0,0,0,0,0,0,0,0,0,0,0,0,0,0,0,1,0,0,1,1
Alexander Tchourbanov,2,Operating  Training/Admin,Weekly meeting for operation,153,,3,0,0,0,0,0,2,0,0,0,0,0,0,0,0,0,0,0,0,0,0,0,0,0,0,0,0,0,0,0,0
Alexander Tchourbanov,2,RD  Computational Solutions,[PT] Exome filtering pipeline -dev,197,,2,0,0,0,0,0,0,0,0,0,0,0,0,0,0,0,0,0,0,0,0,0,0,0,0,0,0,0,0,0,0
Alexander Tchourbanov,2,RD  Existing Clinical Test,[PT] Exome filtering pipeline -val,198,,2,0,0,0,0,0,0,0,0,0,0,0,0,0,0,0,0,0,0,0,0,0,0,0,0,0,0,0,0,0,0
Alexander Tchourbanov,2,Operation  Clinical,[PT] Biohelpdesk requests-Operations,203,,1,0,0,0,0,0,0,0,0,0,0,0,0,0,0,0,0,0,0,0,0,0,0,0,0,0,0,0,0,0,0
Alexander Tchourbanov,2,Operation  IT,Data integrity,721,50-0269,2,0,0,0,0,0,0,0,0,0,0,0,0,0,0,0,0,0,0,0,0,0,0,0,0,0,0,0,0,0,0
Alexander Tchourbanov,2,RD  Computational Solutions,GPU phase II,798,50-0300,12,0,0,0,0,0,0,0,0,0,0,0,0,0,0,0,0,0,0,0,0,0,0,0,0,0,1,4,4,3,0
Alexander Tchourbanov,2,Time Off,Holiday,824,,8,0,0,0,0,8,0,0,0,0,0,0,0,0,0,0,0,0,0,0,0,0,0,0,0,0,0,0,0,0,0
Alexander Tchourbanov,2,Operation  Clinical,MassArray Removal,841,50-0335,21,0,0,0,0,0,2,3,2,2,0,0,0,0,0,0,0,0,0,0,0,0,0,1,0,0,4,1,1,2,3
Alexander Tchourbanov,2,Operation  Pipeline,Monitor/Handle Production issues/Pipeline Maintenance,867,,48,4,4,0,0,0,0,0,0,0,0,0,4,4,3,7,7,0,0,5,3,2,1,2,0,0,0,0,0,0,2
Alexander Tchourbanov,2,RD  Existing Clinical Test,CancerNext V6,873,50-0380,2,0,0,0,0,0,0,0,0,0,0,0,2,0,0,0,0,0,0,0,0,0,0,0,0,0,0,0,0,0,0
Alexander Tchourbanov,2,Operating  Training/Admin,Meetings,875,,19,0,1,0,0,0,0,0,0,0,0,0,0,1,2,1,1,0,0,1,1,2,0,3,0,0,2,2,1,0,1
Alexander Tchourbanov,2,Operation  Clinical,Clinical Operations Support,889,,44,1,3,0,0,0,2,1,2,3,0,0,2,3,3,0,0,0,0,2,4,2,5,2,0,0,1,1,2,3,2
Alexander Tchourbanov,2,Operation  IT,Data Integrity - Soft. Dev.,892,60-0395,17,3,0,0,0,0,2,4,4,0,0,0,0,0,0,0,0,0,0,0,0,2,2,0,0,0,0,0,0,0,0
Arthur Dean,3,Operation  IT,IT Meetings,147,,68,0,3,0,0,0,3,3,3,3,0,0,4.5,3,3,1,4,0,0,4,4,5,4,4,0,0,4,4,4,1,3
Arthur Dean,3,Operation  Clinical,Autocuration,682,15-0256  ,15,0,0,0,0,0,5,5,5,0,0,0,0,0,0,0,0,0,0,0,0,0,0,0,0,0,0,0,0,0,0
Arthur Dean,3,Operation  IT,IGV.js,799,,43,8,5,0,0,0,0,0,0,0,0,0,3.5,5,5,7,4,0,0,0,0,0,0,0,0,0,0,0,0,0,5
Arthur Dean,3,Time Off,Holiday,824,,8,0,0,0,0,8,0,0,0,0,0,0,0,0,0,0,0,0,0,0,0,0,0,0,0,0,0,0,0,0,0
Arthur Dean,3,RD  Computational Solutions,HPO syndrome score - Soft. Dev.,900,60-0403,38,0,0,0,0,0,0,0,0,0,0,0,0,0,0,0,0,0,0,4,4,3,4,4,0,0,4,4,4,7,0
Arthur Dean,3,Operation  IT,Autocuration - Soft. Dev.,901,60-0404,5,0,0,0,0,0,0,0,0,5,0,0,0,0,0,0,0,0,0,0,0,0,0,0,0,0,0,0,0,0,0
Huy Vuong,10,Operating  Training/Admin,Meetings,22,,48,4,2,0,0,4,3,0,2,3,0,0,2,3,2,2,2,0,0,0,4,2,1,3,0,0,2,1,0,4,2
Huy Vuong,10,Time Off,Time Off,64,,12,0,0,0,0,0,0,0,0,0,0,0,0,0,0,0,0,0,0,8,0,0,4,0,0,0,0,0,0,0,0
Huy Vuong,10,Operation  Clinical,[PT] Biohelpdesk requests-Operations,203,,20,0,2,0,0,1,0,1,1,2,0,0,2,1,1,1,2,0,0,0,1,1,0,1,0,0,2,0,0,0,1
Huy Vuong,10,Operating  Training/Admin,Adminstration/JournalClub/Training,213,,2,0,0,0,0,0,0,0,0,0,0,0,0,1,1,0,0,0,0,0,0,0,0,0,0,0,0,0,0,0,0
Huy Vuong,10,Operation  Clinical,TOP2,762,50-0287,44,2,0,0,0,2,2,2,4,0,0,0,2,2,2,0,0,0,0,0,2,2,3,1,0,0,0,8,6,2,1
Huy Vuong,10,Operating  Training/Admin,Germline Pipeline updates,816,50-0279,1,0,0,0,0,0,0,0,0,0,0,0,0,0,0,0,0,0,0,0,0,0,0,0,0,0,0,0,1,0,0
Huy Vuong,10,Operating  Training/Admin,Management Related Tasks,848,,36,2,3,0,0,1,3,4,1,3,0,0,0,0,2,2,2,0,0,0,1,1,0,2,0,0,2,1,0,0,2
Huy Vuong,10,Operation  Clinical,Lifestrands Technical Transfer - Singapore,852,50-0293,1,0,0,0,0,0,0,0,0,0,0,0,0,0,0,1,0,0,0,0,0,0,0,0,0,0,0,0,0,0,0
Huy Vuong,10,Operation  Pipeline,Monitor/Handle Production issues/Pipeline Maintenance,867,,4,0,1,0,0,0,0,0,0,0,0,0,0,0,0,0,0,0,0,0,0,0,0,0,0,0,0,0,0,0,0
Huy Vuong,10,Operating  Training/Admin,Project coordination,871,,18,0,0,0,0,0,0,1,0,0,0,0,2,1,0,2,2,0,0,0,0,2,0,1,0,0,2,0,1,2,2
Sitao Wu,20,Operating  Training/Admin,Meetings,22,,38,0,3,0,0,0,0,3,1,3.5,0,0,0.5,3,3,0,1,0,0,1.5,2,3.5,0,2.5,0,0,1.5,2,3,0,2
Sitao Wu,20,Time Off,Public holiday,304,,8,0,0,0,0,8,0,0,0,0,0,0,0,0,0,0,0,0,0,0,0,0,0,0,0,0,0,0,0,0,0
Sitao Wu,20,RD  Existing Clinical Test,[PT] Germline pipeline updates,742,50-0279,15,6,0,0,0,0,2,1,0,0,0,0,0,0,0,0,0,0,0,0,0,0,0,0,0,0,0,0,0,0,0
Sitao Wu,20,RD  Computational Solutions,GPU phase II,798,50-0300,122,2,5,0,0,0,5,4,7,4.5,0,0,7.5,5,5,8,7,0,0,6.5,6,4.5,8,5.5,0,0,6.5,6,5,8,6
Sitao Wu,20,Operation  Pipeline,Monitor/Handle Production issues/Pipeline Maintenance,876,,1,0,0,0,0,0,1,0,0,0,0,0,0,0,0,0,0,0,0,0,0,0,0,0,0,0,0,0,0,0,0
Hamed Masnadi-Shirazi,27,Time Off,Sick day,356,,3,0,0,0,0,0,0,0,0,0,0,0,0,0,0,0,0,0,0,0,0,0,0,0,0,0,0,0,0,0,3
Hamed Masnadi-Shirazi,27,Operating  Training/Admin,holiday,463,,8,0,0,0,0,8,0,0,0,0,0,0,0,0,0,0,0,0,0,0,0,0,0,0,0,0,0,0,0,0,0
Hamed Masnadi-Shirazi,27,Time Off,sick,500,,6,0,0,0,0,0,0,0,0,0,0,0,0,0,0,0,0,0,0,0,3,3,0,0,0,0,0,0,0,0,0
Hamed Masnadi-Shirazi,27,Operation  Clinical,Document Tagging Solution,828,,8,4,0,0,0,0,0,0,0,0,0,0,0,0,0,0,0,0,0,0,0,0,0,0,0,0,0,0,0,0,0
Hamed Masnadi-Shirazi,27,RD  Computational Solutions,Machine Learning-Reducing the Sanger Follow-ups,854,50-0338,151,4,0,0,0,0,8,8,8,8,0,0,8,8,8,8,8,0,0,8,5,5,8,8,0,0,8,8,8,8,5
Bhuvan Molparia,29,RD  Computational Solutions,[PT] Biohelpdesk requests-R&D,204,,9,8,0,0,0,0,0,0,0,0,0,0,0,0,0,0,0,0,0,0,0,0,0,0,0,0,0,0,0,0,1
Bhuvan Molparia,29,Operating  Training/Admin,Other tasks,662,,1,0,0,0,0,0,0,0,0,0,0,0,0,0,0,0,0,0,0,0.5,0,0,0,0,0,0,0,0,0,0,0
Bhuvan Molparia,29,Time Off,Holiday,824,,8,0,0,0,0,8,0,0,0,0,0,0,0,0,0,0,0,0,0,0,0,0,0,0,0,0,0,0,0,0,0
Bhuvan Molparia,29,RD  Computational Solutions,Machine Learning-Reducing the Sanger Follow-ups,854,50-0338,97,0,5,0,0,0,5,8,6,3,0,0,7,7,0,7,6,0,0,7,7,8,8,6.5,0,0,6,0,0,0,0
Bhuvan Molparia,29,Operating  Training/Admin,Meetings,875,,21,0,3,0,0,0,2,0,1,3,0,0,1,0,0,1,1,0,0,1,1,0,0,1.5,0,0,2,1,0,0,2
Bhuvan Molparia,29,Operation  Pipeline,Monitor/Handle Production issues/Pipeline Maintenance,876,,43,0,0,0,0,0,1,0,1,3,0,0,0,1,8,0,1,0,0,0,0,0,0,0,0,0,0,7,8,8,5
Matthew Varga,34,Operation  Variant Assessment,Variant Assessment,103,,72,0,0,0,0,0,4,5,4,7,0,0,2,4,0,0,5,0,0,0,0,6,6,7,0,0,4,3,8,7,0
Matthew Varga,34,Time Off,SB PTO,104,,8,0,0,0,0,0,0,0,0,0,0,0,0,0,0,0,0,0,0,0,0,0,0,0,0,0,0,0,0,0,0
Matthew Varga,34,Time Off,Holiday,252,,8,0,0,0,0,8,0,0,0,0,0,0,0,0,0,0,0,0,0,0,0,0,0,0,0,0,0,0,0,0,0
Matthew Varga,34,Time Off,Sick day,356,,8,0,0,0,0,0,0,0,0,0,0,0,0,0,0,0,0,0,0,0,0,0,0,0,0,0,0,0,0,0,8
Matthew Varga,34,Operating  Training/Admin,Meetings,429,,26,0,0,0,0,0,2,1,1,1,0,0,1,1,0,1,3,0,0,2,4,2,2,1,0,0,1,2,0,1,0
Matthew Varga,34,Operating  Training/Admin,Other tasks,662,,5,0,0,0,0,0,0,0,0,0,0,0,0,1,2,0,0,0,0,2,0,0,0,0,0,0,0,0,0,0,0
Matthew Varga,34,Operation  IT,Sbio Pipeline Improvements,887,,12,6,4,0,0,0,0,0,0,0,0,0,0,0,2,0,0,0,0,0,0,0,0,0,0,0,0,0,0,0,0
Matthew Varga,34,Operation  IT,Autocuration - Soft. Dev.,901,60-0404,44,2,4,0,0,0,2,2,3,0,0,0,5,2,4,6,0,0,0,4,4,0,0,0,0,0,3,3,0,0,0
Anant Babtiwale,37,Time Off,Public holiday,304,,8,0,0,0,0,8,0,0,0,0,0,0,0,0,0,0,0,0,0,0,0,0,0,0,0,0,0,0,0,0,0
Anant Babtiwale,37,RD  Computational Solutions,PMDA Submission support,830,50-0352,1,0,0,0,0,0,0,0,0,0,0,0,0,0,0,0,0,0,0,0,0,1,0,0,0,0,0,0,0,0,0
Anant Babtiwale,37,Operation  Clinical,Lifestrands Technical Transfer - Singapore,852,50-0293,3,0,0,0,0,0,1,0,0,0,0,0,0,1,0,0,0,0,0,0,1,0,0,0,0,0,0,0,0,0,0
Anant Babtiwale,37,Operation  Pipeline,Monitor/Handle Production issues/Pipeline Maintenance,876,,169,8,8,0,0,0,6,8,8,8,0,0,8,6,8,8,8,0,0,8,6,7,8,8,0,0,8,8,8,8,8
Anant Babtiwale,37,Operation  IT,Lihpao Technical Transfer (CancerNext) - China - Soft. Dev.,895,60-0400,3,0,0,0,0,0,1,0,0,0,0,0,0,1,0,0,0,0,0,0,1,0,0,0,0,0,0,0,0,0,0
Tevfik Hamdi Kitapci,38,Operation  Clinical,[PT] Biohelpdesk requests-Operations,203,,10,0,0,0,0,0,0,0,0,0,0,0,0,0,0,0,0,0,0,0,2,2,0,0,0,0,0,4,2,0,0
Tevfik Hamdi Kitapci,38,RD  New Clinical Test,Liquid biopsy,620,20-0132,142,8,8,0,0,8,8,8,8,8,0,0,8,0,0,0,0,0,0,8,6,6,8,8,0,0,8,4,6,8,8
Tevfik Hamdi Kitapci,38,Time Off,Leave,911,,32,0,0,0,0,0,0,0,0,0,0,0,0,8,8,8,8,0,0,0,0,0,0,0,0,0,0,0,0,0,0
Da-Wei Lin,40,Operation  Clinical,NGS Positive Controls,842,50-0351,48,8,8,0,0,0,0,0,0,0,0,0,0,8,0,0,0,0,0,8,0,0,0,0,0,0,8,0,0,0,8
Da-Wei Lin,40,Operation  Clinical,Project New Vision,872,50-0290,56,0,0,0,0,8,0,0,0,0,0,0,0,0,8,0,8,0,0,0,8,0,0,8,0,0,0,8,0,8,0
Da-Wei Lin,40,Operation  Pipeline,Monitor/Handle Production issues/Pipeline Maintenance,876,,80,0,0,0,0,0,8,8,8,8,0,0,8,0,0,8,0,0,0,0,0,8,8,0,0,0,0,0,8,0,0
Zuyu Zheng,44,Time Off,Sick day,356,,4,0,0,0,0,0,0,0,0,0,0,0,0,0,0,0,0,0,0,0,0,4,0,0,0,0,0,0,0,0,0
Zuyu Zheng,44,Operating  Training/Admin,Meetings,365,,3,0,0,0,0,0,0,0,0,0,0,0,0,0,0,0,0,0,0,0,0,0,0,0,0,0,0,0,0,0,0
Zuyu Zheng,44,RD  Computational Solutions,GPUV2,815,50-0300,6,0,0,0,0,0,0,0,0,0,0,0,0,0,0,0,0,0,0,0,0,0,0,0,0,0,0,0,0,0,0
Zuyu Zheng,44,Time Off,Holiday,824,,8,0,0,0,0,8,0,0,0,0,0,0,0,0,0,0,0,0,0,0,0,0,0,0,0,0,0,0,0,0,0
Zuyu Zheng,44,RD  Computational Solutions,PMDA Submission support,830,50-0352,164,8,8,0,0,0,8,8,8,8,0,0,8,8,8,8,8,0,0,8,8,4,8,8,0,0,8,8,8,8,8
Daniel Campo,45,Time Off,Holiday,573,,8,0,0,0,0,8,0,0,0,0,0,0,0,0,0,0,0,0,0,0,0,0,0,0,0,0,0,0,0,0,0
Daniel Campo,45,Operating  Training/Admin,Other tasks,662,,70,5,2,0,0,0,3,3,3,3.5,0,0,5,4.5,2,5,4.5,0,0,0.5,1.5,2,4,2.5,0,0,4,4,2,4,3
Daniel Campo,45,RD  Existing Clinical Test,[PT] Germline pipeline updates,742,50-0279,1,0,0,0,0,0,0,0,0,0,0,0,0,0,0,0,0,0,0,0,0,0,0,1,0,0,0,0,0,0,0
Daniel Campo,45,RD  Computational Solutions,GPU phase II,798,50-0300,6,0,0,0,0,0,0,0,0,0,0,0,0,0,0,0,0,0,0,0.5,0,1.5,0,0,0,0,1,0,2,0,0
Daniel Campo,45,RD  Computational Solutions,PMDA Submission support,830,50-0352,1,0,0,0,0,0,0,0,0,0,0,0,0,0,0,0,0,0,0,0,0.5,0,0,0,0,0,0,0,0,0,0
Daniel Campo,45,Operation  Clinical,MassArray Removal,841,50-0335,1,0,0,0,0,0,0,0,0,0,0,0,0,0,0,0,0,0,0,0,0,0,0,0,0,0,0,0,0,0,0
Daniel Campo,45,Operation  Clinical,NGS Positive Controls,842,50-0351,2,0,0,0,0,0,0,0,0,0,0,0,0,0,1,0,0,0,0,0,0,0.5,0,0,0,0,0,0,0,0,0
Daniel Campo,45,Operating  Training/Admin,Management Related Tasks,848,,26,1,2,0,0,0,1,2,1,1,0,0,0.5,0.5,1,1,0.5,0,0,2,2,3,3,1.5,0,0,0,1,1,0.5,0.5
Daniel Campo,45,Operation  Clinical,Lifestrands Technical Transfer - Singapore,852,50-0293,2,0,0,0,0,0,0,1,0,0,0,0,0,0,0,0,0,0,0,0,1,0,0,0,0,0,0,0,0,0,0
Daniel Campo,45,Operating  Training/Admin,Project coordination,871,,24,0,1,0,0,0,1,1,0,2.5,0,0,1,1,1,0,3,0,0,3,1,0,1,2,0,0,0,1,1,1,1
Daniel Campo,45,RD  Existing Clinical Test,CancerNext V6,873,50-0380,5,0,0,0,0,0,0,0,0,0,0,0,0,0,1,0,0,0,0,0,0,1,0,0,0,0,0,0,1,0,1
Daniel Campo,45,Operating  Training/Admin,Meetings,877,,38,2,2,0,0,0,3,0,4,1,0,0,2,2,2,2,0,0,0,2,2,0,0,1,0,0,3,2,1,2.5,2.5
Daniel Campo,45,Operating  Training/Admin,Building 15 Closure,879,,2,0,0,0,0,0,0,1,0,0,0,0,0,0,0,0,0,0,0,0,0,0,0,0,0,0,0,0,0,0,0
Daniel Campo,45,RD  Computational Solutions,GPU phase II - Soft. Dev.,898,60-0397,1,0,1,0,0,0,0,0,0,0,0,0,0,0,0,0,0,0,0,0,0,0,0,0,0,0,0,0,0,0,0
Hoda Mirsafian,47,Time Off,PTO,35,,3,0,0,0,0,0,0,0,0,0,0,0,0,0,0,0,0,0,0,0,0,0,0,3,0,0,0,0,0,0,0
Hoda Mirsafian,47,Operating  Training/Admin,Meetings,429,,10,0,0,0,0,0,1,0,0,1,0,0,0,0,1,0,1,0,0,1,1,0,0,1,0,0,1,2,0,0,0
Hoda Mirsafian,47,RD  New Clinical Test,[PT] RNAinsight V2,487,20-0125,187,9,9,0,0,0,8,9,9,8,0,0,9,9,8,9,8,0,0,8,8,9,9,5,0,0,9,8,9,9,9
Hoda Mirsafian,47,Time Off,Holiday,573,,8,0,0,0,0,8,0,0,0,0,0,0,0,0,0,0,0,0,0,0,0,0,0,0,0,0,0,0,0,0,0
Zhengdeng Lei,48,Operating  Training/Admin,Administration/Journal Club/Training,254,,17,0,2.5,0,0,0,0.5,0,0,2.5,0,0,1.5,0.5,2,0,1.5,0,0,2.5,0,1,0,2,0,0,0,0,0,0,0
Zhengdeng Lei,48,Time Off,Sick day,356,,2,0,0,0,0,0,0,0,0,0,0,0,0,0,0,2,0,0,0,0,0,0,0,0,0,0,0,0,0,0,0
Zhengdeng Lei,48,RD  New Clinical Test,[PT] RNAInsight V2,442,20-0125,3,0,0,0,0,0,0,1,0,0,0,0,0,0,1,0,0,0,0,0,0,0.5,0,0,0,0,0,0,0,0,0
Zhengdeng Lei,48,RD  New Clinical Test,[PT] RNAinsight V2,487,20-0125,1,0,0,0,0,0,0,0,0,0,0,0,0,0,0,0,0,0,0,0,0,0,0,0,0,0,0,0.5,0,0,0
Zhengdeng Lei,48,Time Off,Holiday,573,,8,0,0,0,0,8,0,0,0,0,0,0,0,0,0,0,0,0,0,0,0,0,0,0,0,0,0,0,0,0,0
Zhengdeng Lei,48,Operating  Training/Admin,Other tasks,662,,1,0,0,0,0,0,0,0,0,0,0,0,0,0,0,0,0,0,0,0,0,0,0,0,0,0,0,0,0,0,0.5
Zhengdeng Lei,48,RD  Computational Solutions,GPU phase II,798,50-0300,122,8,5.5,0,0,0,5.5,4,8,5.5,0,0,1.5,1,1.5,6,6.5,0,0,5.5,8,6.5,8,6,0,0,6,5.5,3,7.5,5.5
Zhengdeng Lei,48,Operation  Clinical,Reduced Hour Hyb,843,50-0348,20,0,0,0,0,0,2,3,0,0,0,0,5,6.5,3.5,0,0,0,0,0,0,0,0,0,0,0,0,0,0,0,0
Zhengdeng Lei,48,Operating  Training/Admin,Management Related Tasks,848,,6,0,0,0,0,0,0,0,0,0,0,0,0,0,0,0,0,0,0,0,0,0,0,0,0,0,1,1,3,0.5,0
Zhengdeng Lei,48,Operating  Training/Admin,Meetings,875,,6,0,0,0,0,0,0,0,0,0,0,0,0,0,0,0,0,0,0,0,0,0,0,0,0,0,1,1,2,0,2
Shichen Wang,49,Time Off,Public holiday,304,,8,0,0,0,0,8,0,0,0,0,0,0,0,0,0,0,0,0,0,0,0,0,0,0,0,0,0,0,0,0,0
Shichen Wang,49,Operation  Pipeline,20-0125 RNAinsight V2,499,20-0125,6,0,0,0,0,0,0,0,1,2,0,0,2,0,0,0,1,0,0,0,0,0,0,0,0,0,0,0,0,0,0
Shichen Wang,49,Operating  Training/Admin,Meeting,607,,9,0,0,0,0,0,2,0,1,2,0,0,0,1,1,1,1,0,0,0,0,0,0,0,0,0,0,0,0,0,0
Shichen Wang,49,RD  New Clinical Test,Solid Tumor ctDNA panel,614,20-0132,6,0,2,0,0,0,0,0,0,0,0,0,0,0,0,0,0,0,0,0,0,0,0,0,0,0,0,0,0,0,0
Shichen Wang,49,RD  Existing Clinical Test,[PT] Germline pipeline updates,742,50-0279,12,0,0,0,0,0,2,4,0,0,0,0,0,0,2,2,2,0,0,0,0,0,0,0,0,0,0,0,0,0,0
Shichen Wang,49,Operating  Training/Admin,Code review / Dev report,795,,4,0,0,0,0,0,0,0,0,0,0,0,2,0,1,1,0,0,0,0,0,0,0,0,0,0,0,0,0,0,0
Shichen Wang,49,RD  Computational Solutions,GPUV2,815,50-0300,56,8,4,0,0,0,4,4,6,4,0,0,4,6,4,4,4,0,0,0,0,0,0,0,0,0,0,0,0,0,0
Jingyi Lu,50,Time Off,Holiday,824,,8,0,0,0,0,8,0,0,0,0,0,0,0,0,0,0,0,0,0,0,0,0,0,0,0,0,0,0,0,0,0
Jingyi Lu,50,RD  Computational Solutions,PMDA Submission support,830,50-0352,176,8,8,0,0,0,8,8,8,8,0,0,8,8,8,8,8,0,0,8,8,8,8,8,0,0,8,8,8,8,8
Zhengwei Zhu,51,RD  New Clinical Test,[PT] RNAInsight V2,442,20-0125,103,4,4,0,0,8,8,8,8,8,0,0,8,8,8,8,8,0,0,8,0,0,0,0,0,0,0,0,0,0,0
Zhengwei Zhu,51,RD  Computational Solutions,[PT] Solid Tumor ctDNA panel,507,20-0132,9,4,4,0,0,0,0,0,0,0,0,0,0,0,0,0,0,0,0,0,0,0,0,0,0,0,0,0,0,0,0
Zhengwei Zhu,51,Time Off,Holiday,573,,8,0,0,0,0,8,0,0,0,0,0,0,0,0,0,0,0,0,0,0,0,0,0,0,0,0,0,0,0,0,0
Zhengwei Zhu,51,Time Off,Leave,911,,72,0,0,0,0,0,0,0,0,0,0,0,0,0,0,0,0,0,0,0,8,8,8,8,0,0,8,8,8,8,8
Louise Cabansay,54,Time Off,PTO,35,,8,0,0,0,0,0,8,0,0,0,0,0,0,0,0,0,0,0,0,0,0,0,0,0,0,0,0,0,0,0,0
Louise Cabansay,54,Time Off,Public holiday,304,,8,0,0,0,0,8,0,0,0,0,0,0,0,0,0,0,0,0,0,0,0,0,0,0,0,0,0,0,0,0,0
Louise Cabansay,54,Operating  Training/Admin,sick,670,,20,0,0,0,0,0,0,0,0,4,0,0,0,0,0,0,0,0,0,0,0,0,0,0,0,0,8,8,0,0,0
Louise Cabansay,54,Operation  Pipeline,Monitor/Handle Production issues/Pipeline Maintenance,867,,144,8,8,0,0,0,0,8,8,0,0,0,8,8,8,8,8,0,0,8,8,8,8,8,0,0,0,0,8,8,8
David Burks,55,Time Off,PTO,35,,13,0,0,0,0,8,0,0,0,0,0,0,0,5,0,0,0,0,0,0,0,0,0,0,0,0,0,0,0,0,0
David Burks,55,Operating  Training/Admin,Meeting,607,,47,1.5,0,0,0,0,3,3,1.5,2,0,0,2,0,1,2,2.5,0,0,2,2,3.5,1,4.5,0,0,2.5,3,2.5,3,2.5
David Burks,55,Operation  Pipeline,Monitor/Handle Production issues/Pipeline Maintenance,867,,143,6.5,8,0,0,0,5,5.5,6.5,6,0,1,6,3,7,7,5.5,0,0,7,6,4.5,9,5.5,0.25,0,8,6,9,6,6.5
Shane Dooley,56,RD  Existing Clinical Test,[PT] NGS pipeline functional testing,186,,22,0,0,0,0,0,6,6,6,0,0,0,0,0,0,0,0,0,0,0,0,0,0,0,0,0,2,0,1,1,0
Shane Dooley,56,Time Off,Public holiday,304,,8,0,0,0,0,8,0,0,0,0,0,0,0,0,0,0,0,0,0,0,0,0,0,0,0,0,0,0,0,0,0
Shane Dooley,56,Operating  Training/Admin,Meetings,365,,10,0,1,0,0,0,0,0,0,3,0,0,1,0,0,0,0,0,0,2.5,0,0,0,1,0,0,0,0,0,0,0
Shane Dooley,56,Time Off,sick,500,,8,0,0,0,0,0,0,0,0,0,0,0,0,0,0,0,0,0,0,0,0,0,0,0,0,0,0,0,0,0,8
Shane Dooley,56,Operating  Training/Admin,Other tasks,662,,5,1,0,0,0,0,0,2,2,0,0,0,0,0,0,0,0,0,0,0,0,0,0,0,0,0,0,0,0,0,0
Shane Dooley,56,RD  Research Collaboration,Long Read Benchmarking and Analysis - Nanopore/Pacbio,667,,27,0,0,0,0,0,0,0,0,0,0,0,1,1,2,3,0,0,0,5.5,4,3,3,0,0,0,4,0,0,0,0
Shane Dooley,56,RD  Existing Clinical Test,[PT] Germline pipeline updates,742,50-0279,88,7,0,0,0,0,2,0,0,0,0,0,6,7,6,5,5,0,0,0,4,5,5,7,0,0,2,6,7,7,0
Jason Belsky,57,Operating  Training/Admin,General Administrative Tasks,94,,56,4,0,0,0,0,2,2,4,4,0,0,4,4,4,4,4,0,0,4,4,4,2,4,0,0,0,0,0,0,0
Jason Belsky,57,RD  New Clinical Test,Liquid biopsy,620,20-0132,44,4,0,0,0,0,4,4,0,0,0,0,0,4,4,4,0,0,0,4,4,0,4,4,0,0,0,0,0,0,0
Jason Belsky,57,RD  Research Collaboration,[PT] RNAInsight V2 - research,629,20-0125,26,0,0,0,0,0,0,0,4,4,0,0,4,0,4,0,4,0,0,0,0,4,0,0,0,0,0,0,0,0,0
Jason Belsky,57,Operation  Pipeline,Biohelpdesk requests & maintenance (BI-OPS),749,,4,0,0,0,0,0,2,2,0,0,0,0,0,0,0,0,0,0,0,0,0,0,0,0,0,0,0,0,0,0,0
Jason Belsky,57,Operation  Clinical,Lihpao Technical Transfer (CancerNext) - China,853,50-0249,2,0,0,0,0,0,0,0,0,0,0,0,0,0,0,0,0,0,0,0,0,0,2,0,0,0,0,0,0,0,0
Jason Belsky,57,Time Off,Leave,911,,8,0,0,0,0,8,0,0,0,0,0,0,0,0,0,0,0,0,0,0,0,0,0,0,0,0,0,0,0,0,0
Claudia Dastmalchi,61,Time Off,PTO,35,,8,0,0,0,0,0,0,0,0,0,0,0,0,0,0,0,0,0,0,0,0,0,0,8,0,0,0,0,0,0,0
Claudia Dastmalchi,61,Operation  Pipeline,Monitor/Handle Production issues/Pipeline Maintenance,867,,159,0,0,0,0,8,8,8,8,7,0,0,8,8,8,8,8,0,0,8,8,8,8,0,0,0,8,8,8,8,7.5
Claudia Dastmalchi,61,Operating  Training/Admin,Meetings,875,,2,0,0,0,0,0,0,0,0,1,0,0,0,0,0,0,0,0,0,0,0,0,0,0,0,0,0,0,0,0,0.5
William Lyman,62,Time Off,PTO,35,,4,0,0,0,0,0,0,0,0,0,0,0,0,0,0,0,3.5,0,0,0,0,0,0,0,0,0,0,0,0,0,0
William Lyman,62,Operation  IT,Bio API,157,,8,0,7.5,0,0,0,0,0,0,0,0,0,0,0,0,0,0,0,0,0,0,0,0,0,0,0,0,0,0,0,0
William Lyman,62,Operating  Training/Admin,Misc Meetings,379,,22,0,0.5,0,0,0,0,2,1,1,0,0,1.5,2,2.5,1,0.5,0,0,1.5,1.5,1.5,2,0.5,0,0,0,1,1.5,0,0
William Lyman,62,Operation  Variant Assessment,[SB] Variant Prioritization by HPO,469,,8,0,0,0,0,0,0,0,0,0,0,0,0,0,0,0,0,0,0,0,0,0,0,0,0,0,0,0,0,0,0
William Lyman,62,Operation  IT,[SB] OCR -- C4C,634,,4,4,0,0,0,0,0,0,0,0,0,0,0,0,0,0,0,0,0,0,0,0,0,0,0,0,0,0,0,0,0
William Lyman,62,Operation  Clinical,Document Tagging Solution,828,,22,0,0,0,0,0,0,4,3,3,0,0,2.5,0,2,0,0,0,0,0,0,0,0,0,0,0,0,0,0,5,2
William Lyman,62,RD  Computational Solutions,HPO syndrome score - Soft. Dev.,900,60-0403,8,0,0,0,0,4,4,0,0,0,0,0,0,0,0,0,0,0,0,0,0,0,0,0,0,0,0,0,0,0,0
William Lyman,62,Operation  IT,BioAPI (Python) - 2.4.0,908,CAP-219,13,0,0,0,0,0,0,0,0,0,0,0,0,0,0,0,0,0,0,0,0,0,0,0,0,0,4,3,3,0,3
William Lyman,62,Operation  IT,BioAPI (Perl) - 6.5.0,910,60-0408,97,4,0,0,0,4,4,2,4,4,0,0,4,6,3.5,7,4,0,0,6.5,6.5,6.5,6,7.5,0,0,4,4,3.5,3,3
Hua Meng,63,Time Off,Holiday,252,,8,0,0,0,0,8,0,0,0,0,0,0,0,0,0,0,0,0,0,0,0,0,0,0,0,0,0,0,0,0,0
Hua Meng,63,Operation  Pipeline,Monitor/Handle Production issues/Pipeline Maintenance,867,,176,8,8,0,0,0,8,8,8,8,0,0,8,8,8,8,8,0,0,8,8,8,8,8,0,0,8,8,8,8,8
Stephanie Feupe,64,Operating  Training/Admin,Administrative Tasks,19,,4,0,0,0,0,0,0,1,0,1,0,0,0,0,0,1,0,0,0,0,0,0,0,0,0,0,0,0,0,1,0
Stephanie Feupe,64,RD  Research Collaboration,[SB] Meetings/Collaboration,105,,9,1,2,0,0,0,0,0,0,0,0,0,1,1,1,1,2,0,0,0,0,0,0,0,0,0,0,0,0,0,0
Stephanie Feupe,64,Time Off,Public holiday,304,,8,0,0,0,0,8,0,0,0,0,0,0,0,0,0,0,0,0,0,0,0,0,0,0,0,0,0,0,0,0,0
Stephanie Feupe,64,RD  Research Collaboration,Pfizer AGS,465,,9,0,0,0,0,0,3,0,0,0,0,0,0,0,3,2,0,0,0,0,0,0,0,0,0,0,0,0,1,0,0
Stephanie Feupe,64,RD  Research Collaboration,OSU raw data transfer,579,,11,0,0,0,0,0,0,0,3,0,0,0,3,2,1,0,0,0,0,0,1,0,0,0,0,0,0,0,0,0,0
Stephanie Feupe,64,Operating  Training/Admin,Meeting,607,,22,0,0,0,0,0,2,1,1,2,0,0,0,0,0,0,0,0,0,0,2,2,2,2,0,0,1,2,2,1,2
Stephanie Feupe,64,Operating  Training/Admin,Other tasks,662,,6,0,0,0,0,0,0,0,0,1,0,0,1,0,0,0,0,0,0,0,1,0,1,0,0,0,0,0,1,0,1
Stephanie Feupe,64,Time Off,vacastion,769,,8,0,0,0,0,0,0,0,0,0,0,0,0,0,0,0,0,0,0,8,0,0,0,0,0,0,0,0,0,0,0
Stephanie Feupe,64,Operating  Training/Admin,AWS,812,,5,2,1,0,0,0,0,0,0,0,0,0,1,0,0,0,0,0,0,0,0,0,0,0,0,0,1,0,0,0,0
Stephanie Feupe,64,Operation  Clinical,Flowcell Mix and Match,838,50-0336,2,0,0,0,0,0,0,0,0,0,0,0,0,0,2,0,0,0,0,0,0,0,0,0,0,0,0,0,0,0,0
Stephanie Feupe,64,Operating  Training/Admin,Management Related Tasks,848,,4,1,1,0,0,0,0,0,0,0,0,0,0,0,0,0,0,0,0,0,0,0,0,0,0,0,0,0,0,0,0
Stephanie Feupe,64,Operation  Pipeline,Monitor/Handle Production issues/Pipeline Maintenance,867,,13,1,1,0,0,0,1,2,2,1,0,0,0,0,0,0,1,0,0,0,0,2,0,0,0,0,0,0,1,1,0
Stephanie Feupe,64,Operation  Clinical,PGDx Illumina TSO500 ctDNA Sample Processing,868,50-0340,63,1,3,0,0,0,2,4,2,2,0,0,2,5,1,3,3,0,0,0,3,3,2,4,0,0,6,5,3,4,3
Stephanie Feupe,64,Operation  Clinical,PGDx Roche Avenio Expanded Sample Processing,869,50-0331,14,0,0,0,0,0,0,0,0,0,0,0,0,0,0,1,2,0,0,0,1,1,3,2,0,0,0,1,0,1,2
Stephanie Feupe,64,Operation  Clinical,Validation Efforts,880,,6,2,0,0,0,0,0,0,0,1,0,0,0,0,0,0,0,0,0,0,0,0,0,0,0,0,0,0,0,0,0
John Ranola,66,Operating  Training/Admin,Administration/Journal Club/Training,254,,1,0,1,0,0,0,0,0,0,0,0,0,0,0,0,0,0,0,0,0,0,0,0,0,0,0,0,0,0,0,0
John Ranola,66,Operation  Clinical,[SB] Guided Variant Assessment,575,20-0191,60,0,0,0,0,0,3,3,4,4,0,0,4,4,4,4,4,0,0,5,5,5,6,5,0,0,0,0,0,0,0
John Ranola,66,Operating  Training/Admin,Other tasks,662,,3,0,0,0,0,0,0,0,0,0,0,0,1,0,0,0,0,0,0,0,0,1,0,0,0,0,1,0,0,0,0
John Ranola,66,Time Off,Holiday,732,,8,0,0,0,0,8,0,0,0,0,0,0,0,0,0,0,0,0,0,0,0,0,0,0,0,0,0,0,0,0,0
John Ranola,66,Operation  Variant Assessment,Biostat Support for variant assessment operation,833,50-0267,32,4,1,0,0,0,0,0,0,0,0,0,0,0,0,0,0,0,0,0,0,0,0,0,0,0,4,4,6,6,5
John Ranola,66,RD  Research Collaboration,Develop information score for variant classification,837,,35,0,2,0,0,0,1,1,2,2,0,0,2,2,2,2,2,0,0,2,2,1,1,1,0,0,1,1,2,2,2
John Ranola,66,RD  Research Collaboration,Precede (lpWGS using GLIMPSE for Imputation),857,,28,2,2,0,0,0,2,2,1,1,0,0,0,1,1,2,2,0,0,1,1,1,1,2,0,0,2,2,0,0,0
John Ranola,66,RD  Research Collaboration,Principal component analyses for TNXB alterations,870,,15,2,2,0,0,0,2,2,1,1,0,0,1,1,1,0,0,0,0,0,0,0,0,0,0,0,0,0,0,0,0
John Ranola,66,Operating  Training/Admin,Meetings,875,,2,0,0,0,0,0,0,0,0,0,0,0,0,0,0,0,0,0,0,0,0,0,0,0,0,0,0,1,0,0,1
Long Tian,67,Time Off,PTO,35,,32,0,0,0,0,0,0,0,0,0,0,0,0,0,0,0,0,0,0,8,8,8,8,0,0,0,0,0,0,0,0
Long Tian,67,RD  Computational Solutions,Sanger Primer Design Automation,448,20-0137,82,8,6,0,0,4,4,7,7,1,0,0,6,4,4,8,7,0,0,0,0,0,0,6,0,0,0,0,2,0,0
Long Tian,67,RD  New Clinical Test,[PT] RNAinsight V2,487,20-0125,4,0,0,0,0,0,0,1,0,0,0,0,0,0,2,0,0,0,0,0,0,0,0,0,0,0,0,0,0,1,0
Long Tian,67,RD  New Clinical Test,Liquid biopsy,620,20-0132,28,0,0,0,0,2,1,0,1,4,0,0,0,1,0,0,0,0,0,0,0,0,0,0,0,0,5,5,5,2,2
Long Tian,67,Operation  Pipeline,Monitor/Handle Production issues/Pipeline Maintenance,867,,9,0,0,0,0,0,0,0,0,0,0,0,0,0,0,0,0,0,0,0,0,0,0,0,0,0,0,0,0,5,3.5
Long Tian,67,Operating  Training/Admin,Meetings,875,,30,0,2,0,0,2,3,0,0,3,0,0,2,3,2,0,1,0,0,0,0,0,0,2,0,0,3,3,1,0,2.5
Vasanth Singan,70,Time Off,Holiday,573,,8,0,0,0,0,8,0,0,0,0,0,0,0,0,0,0,0,0,0,0,0,0,0,0,0,0,0,0,0,0,0
Vasanth Singan,70,RD  Computational Solutions,PMDA Submission support,830,50-0352,168,8,8,0,0,0,8,8,8,8,0,0,8,8,8,8,8,0,0,8,8,8,8,8,0,0,8,8,8,8,8
Vasanth Singan,70,Operation  Pipeline,Monitor/Handle Production issues/Pipeline Maintenance,876,,8,0,0,0,0,0,0,0,0,0,0,0,0,0,0,0,0,0,0,0,0,0,0,0,0,0,0,0,0,0,0
Christopher Bennett,71,Operating  Training/Admin,Other tasks,662,,20,0,0,0,0,0,0,0,0,0,0,0,0,4,0,4,3,0,0,0,0,0,0,0,0,0,0,2,1,2,4
Christopher Bennett,71,RD  Computational Solutions,GPU phase II,798,50-0300,14,0,0,0,0,0,0,0,0,0,0,0,0,0,2,0,1,0,0,2,1,1,0,0,0,0,2,1,2,1,1
Christopher Bennett,71,Operation  Clinical,Buccal Swab Extraction Automation,835,50-0342,1,0,0,0,0,0,0,0,0,0,0,0,0,0,0,0,0,0,0,0,0,0,0,0,0,0,0,1,0,0,0
Christopher Bennett,71,Operation  Clinical,NGS Positive Controls,842,50-0351,1,0,0,0,0,0,0,0,0,0,0,0,0,0,1,0,0,0,0,0,0,0,0,0,0,0,0,0,0,0,0
Christopher Bennett,71,Operating  Training/Admin,Management Related Tasks,848,,17,0,0,0,0,0,0,0,0,0,0,0,0,4,0,4,2,0,0,3,2,1,0,1,0,0,0,0,0,0,0
Christopher Bennett,71,Operating  Training/Admin,Project coordination,871,,52,0,0,0,0,0,0,0,0,0,0,0,0,0,5,0,2,0,0,2,4,6,8,6,0,0,6,4,2,5,2
Christopher Bennett,71,RD  Existing Clinical Test,CancerNext V6,873,50-0380,3,0,0,0,0,0,0,0,0,0,0,0,0,0,0,0,0,0,0,0,0,0,0,0,0,0,0,0,2,0,1
Christopher Bennett,71,Operation  Clinical,Validation Efforts,880,,4,0,0,0,0,0,0,0,0,0,0,0,0,0,0,0,0,0,0,1,1,0,0,1,0,0,0,0,1,0,0
Christopher Bennett,71,Time Off,Leave,911,,72,8,8,0,0,8,8,8,8,8,0,0,8,0,0,0,0,0,0,0,0,0,0,0,0,0,0,0,0,0,0
Zahra Heidari,74,Time Off,PTO,35,,4,0,0,0,0,0,0,0,0,0,0,0,0,0,0,0,0,0,0,0,0,0,0,0,0,0,0,0,0,0,4
Zahra Heidari,74,Operation  Variant Assessment,Variant Assessment,103,,58,6,6,0,0,2,2,1,0,0,0,0,4,4,2,2,4,0,0,0,0,0,0,0,0,0,0,3,6,6,3
Zahra Heidari,74,Operating  Training/Admin,Other tasks,662,,5,0,0,0,0,0,0,0,0,0,0,0,1,0,0,0,0,0,0,0,0,0,2,2,0,0,0,0,0,0,0
Zahra Heidari,74,Operation  Clinical,Document Tagging Solution,828,,74,2,2,0,0,4,4,4,6,6,0,0,4,4,4,4,4,0,0,4,4,4,4,4,0,0,4,0,0,0,0
Zahra Heidari,74,Operating  Training/Admin,Meetings,875,,14,0,0,0,0,0,1,1,0,0,0,0,0,1,1,0,1,0,0,1,1,1,1,2,0,0,1,1,0,0,1
Zahra Heidari,74,Operation  IT,Sbio Pipeline Improvements,887,,45,0,0,0,0,2,2,4,2,2,0,0,0,0,2,2,0,0,0,4,4,4,2,2,0,0,3,5,3,2,0
Esther (Yun-Hua) Hsiao,75,Operating  Training/Admin,Weekly pipeline development meeting,38,,1,0,0,0,0,0,0.5,0,0,0,0,0,0,0.5,0,0,0,0,0,0,0,0,0,0,0,0,0,0,0,0,0
Esther (Yun-Hua) Hsiao,75,Operating  Training/Admin,Weekly meeting for operation,153,,6,0,1,0,0,0,0,1,0,1,0,0,0,1.5,0,0,0.5,0,0,0,0,0,0,0,0,0,0,0,0,0,0
Esther (Yun-Hua) Hsiao,75,Operating  Training/Admin,Webinar,282,,3,0,0,0,0,0,0,0,1,0,0,0,0,1,1,0,0,0,0,0,0,0,0,0,0,0,0,0,0,0,0
Esther (Yun-Hua) Hsiao,75,Time Off,Holiday,573,,8,0,0,0,0,8,0,0,0,0,0,0,0,0,0,0,0,0,0,0,0,0,0,0,0,0,0,0,0,0,0
Esther (Yun-Hua) Hsiao,75,Operating  Training/Admin,Other tasks,662,,23,0,0,0,0,0,0,0,0,0,0,0,0,0,0,0,0,0,0,0,0,0,0,0,0,0,6,5,4,4,4
Esther (Yun-Hua) Hsiao,75,Operating  Training/Admin,AGS,704,,20,1,4,0,0,0,1.5,0,2,3,0,0,1,0,0,0,5,0,0,0,0,0,0,0,0,0,0,0,0,0,0
Esther (Yun-Hua) Hsiao,75,Operating  Training/Admin,AWS,730,,2,0,0,0,0,0,1,0,0,0,0,0,1,0,0,0,0,0,0,0,0,0,0,0,0,0,0,0,0,0,0
Esther (Yun-Hua) Hsiao,75,Operating  Training/Admin,BI Townhall Meeting,775,,1,0,0,0,0,0,0,0,0,0,0,0,0,0,0,1,0,0,0,0,0,0,0,0,0,0,0,0,0,0,0
Esther (Yun-Hua) Hsiao,75,Operating  Training/Admin,Management Related Tasks,848,,13,0,0,0,0,0,0,0,0,0,0,0,0,0,0,0,0,0,0,0,4,4,3,2,0,0,0,0,0,0,0
Esther (Yun-Hua) Hsiao,75,Operation  Clinical,AGS Sanofi Roche Avenio 77 panel ctDNA - 330 (TED14856),861,20-0116,7,0,1,0,0,0,0,0,0,0,0,0,0,0,0,0.5,0.5,0,0,0,0,0,0,0,0,0,0,0,2,2,1
Esther (Yun-Hua) Hsiao,75,Operation  Clinical,AGS Sanofi Roche Avenio 77 panel ctDNA – 54 and germline mutation analysis based on the Exome-Select assay focused on the same 77 genes (ACT16146/SOW7),862,50-0297,6,0,0,0,0,0,0,5,0,0,0,0,0,0,0,0,0,0,0,1,0,0,0,0,0,0,0,0,0,0,0
Esther (Yun-Hua) Hsiao,75,Operation  Clinical,AGS TSO500 Liquid Biopsy Test 523 Genes and germline mutation analysis based on the Exome-Select assay focused on the same 523 genes (EFC15935/AMEERA-5/SOW8),863,50-0298,6,0,0,0,0,0,0,0,0,0,0,0,0,0,0,0.5,1,0,0,0,0.5,0,0,0,0,0,0,0,0,0,0
Esther (Yun-Hua) Hsiao,75,Operation  Clinical,Biocartis,864,,22,4,0,0,0,0,1,1,1,0,0,0,3,1,2,4,0,0,0,0,0,1,2,1,0,0,0,0,0,0,0
Esther (Yun-Hua) Hsiao,75,Operation  Clinical,Clinical trial sample analysis using Roche Avenio 77 panel ctDNA (80 samples) (ACT16432/SOW10),865,50-0299,12,0,1,0,0,0,4,0,0,0,0,0,0,4,0,0.5,0.5,0,0,1,1,0,0,0,0,0,0,0,0,0,0
Esther (Yun-Hua) Hsiao,75,Operation  Pipeline,Monitor/Handle Production issues/Pipeline Maintenance,867,,18,2,1,0,0,0,0,0,4,0,0,0,0,0,4,1.5,0.5,0,0,1,0.5,1,0,1,0,0,0,0,0,1,0
Esther (Yun-Hua) Hsiao,75,Operation  Clinical,PGDx Illumina TSO500 ctDNA Sample Processing,868,50-0340,4,0,0,0,0,0,0,1,0,0,0,0,0,0,0,0,0,0,0,2,0.5,0,0,0,0,0,0,0,0,0,0
Esther (Yun-Hua) Hsiao,75,Operating  Training/Admin,Project coordination,871,,4,0,0,0,0,0,0,0,0,0,0,0,0,0,0,0,0,0,0,0,0,1,0,3,0,0,0,0,0,0,0
Esther (Yun-Hua) Hsiao,75,Operation  Clinical,EDTA Blood Tube RT Stability,874,50-0355,1,1,0,0,0,0,0,0,0,0,0,0,0,0,0,0,0,0,0,0,0,0,0,0,0,0,0,0,0,0,0
Esther (Yun-Hua) Hsiao,75,Operating  Training/Admin,Meetings,875,,21,0,0,0,0,0,0,0,0,0,0,0,0,0,0,0,0,0,0,3,1.5,1,3,1,0,0,2,3,2,1,3
Esther (Yun-Hua) Hsiao,75,Operation  Clinical,Zymo DNA Purification Study,886,50-0358,8,0,0,0,0,0,0,0,0,4,0,0,3,0,1,0,0,0,0,0,0,0,0,0,0,0,0,0,0,0,0
Charles Huang,76,RD  Research Collaboration,[SB] Meetings/Collaboration,105,,28,0,0,0,0,0,0,1,1,1,0,0,2,2,1,1,0,0,0,2,3,1,2,1,0,0,1,2,1,2,2
Charles Huang,76,Time Off,PTO,205,,24,8,8,0,0,0,8,0,0,0,0,0,0,0,0,0,0,0,0,0,0,0,0,0,0,0,0,0,0,0,0
Charles Huang,76,Time Off,Holiday,573,,8,0,0,0,0,8,0,0,0,0,0,0,0,0,0,0,0,0,0,0,0,0,0,0,0,0,0,0,0,0,0
Charles Huang,76,Operation  Reporting,Biotools API,805,,6,0,0,0,0,0,0,0,0,0,0,0,0,0,0,0,0,0,0,6,0,0,0,0,0,0,0,0,0,0,0
Charles Huang,76,Operation  Clinical,Clinical Operations Support,889,,5,0,0,0,0,0,0,3,2,0,0,0,0,0,0,0,0,0,0,0,0,0,0,0,0,0,0,0,0,0,0
Charles Huang,76,Operation  IT,BioAPI (Perl) - 6.5.0,910,60-0408,119,0,0,0,0,0,0,4,5,7,0,0,6,6,7,7,8,0,0,6,5,7,6,7,0,0,7,6,7,6,6
Ryan Fergusson,77,RD  Research Collaboration,[SB] Meetings/Collaboration,105,,42,0,0,0,0,0,3,2,0,4,0,0,2.5,4,7,0,2,0,0,3.5,2.5,6,2,3,0,0,0,0,0,0,0
Ryan Fergusson,77,Operation  Clinical,[PT] Biohelpdesk requests-Operations,203,,18,6,7,0,0,0,0,0,0,0,0,0,0,0,0,0,0,0,0,0,0,0,0,0,0,0,0,0,0,0,0
Ryan Fergusson,77,Time Off,Sick day,356,,8,0,0,0,0,0,0,0,0,0,0,0,0,0,0,0,0,0,0,0,0,0,0,0,0,0,0,0,8,0,0
Ryan Fergusson,77,Operation  Pipeline,20-0125 RNAinsight V2,499,20-0125,6,2,1,0,0,0,0,0,0,0,0,0,0,0,0,0,0,0,0,0,0,0,0,0,0,0,0,0,0,0,0
Ryan Fergusson,77,Time Off,Holiday,824,,8,0,0,0,0,8,0,0,0,0,0,0,0,0,0,0,0,0,0,0,0,0,0,0,0,0,0,0,0,0,0
Ryan Fergusson,77,Operation  Clinical,NGS Workflow Optimization,827,50-0313,6,0,0,0,0,0,1,1,0,0,0,0,0,1,0,2,0,0,0,0,0,0,1,0,0,0,0,0,0,0,0
Ryan Fergusson,77,Operation  Clinical,NGS Positive Controls,842,50-0351,1,0,0,0,0,0,1,0,0,0,0,0,0,0,0,0,0,0,0,0,0,0,0,0,0,0,0,0,0,0,0
Ryan Fergusson,77,Operation  Pipeline,Monitor/Handle Production issues/Pipeline Maintenance,867,,35,0,0,0,0,0,3,2,5,0,0,0,4,1,1,2,6,0,0,2,4,2,3,0,0,0,0,0,0,0,0
Ryan Fergusson,77,Operating  Training/Admin,Project coordination,871,,22,0,0,0,0,0,0,0,0,0,0,0,0,0,0,0,0,0,0,0,0,0,0,0,0,0,5,3,0,8,6
Ryan Fergusson,77,Operating  Training/Admin,Meetings,877,,10,0,0,0,0,0,0,0,0,0,0,0,0,0,0,0,0,0,0,0,0,0,0,0,0,0,3,5,0,0,2
Ryan Fergusson,77,RD  Computational Solutions,RNAinsight V2 - Soft. Dev.,896,60-0396,8,0,0,0,0,0,0,2,1,2,0,0,0,0,0,2,0,0,0,1,0,0,0,0,0,0,0,0,0,0,0
Ryan Fergusson,77,RD  Computational Solutions,GPU phase II - Soft. Dev.,898,60-0397,18,0,0,0,0,0,0,1,2,2,0,0,1.5,2,0,2,0,0,0,1.5,1.5,0,2,2,0,0,0,0,0,0,0
Matthew Blake,78,Operating  Training/Admin,Other tasks,662,,13,0,0,0,0,3,0,0,1,0,0,0,0,0,1,0,0,0,0,0,0,0,2,2,0,0,1,0,0,2,1
Matthew Blake,78,Operating  Training/Admin,Project coordination,871,,109,7,5,0,0,3,4,6,4,5,0,0,5,5,4,7,5,0,0,5,5,5,5,4,0,0,5,5,5,5,5
Matthew Blake,78,Operating  Training/Admin,Meetings,875,,54,1,3,0,0,2,4,2,3,3,0,0,3,3,3,1,3,0,0,3,3,3,1,2,0,0,2,3,3,1,2
Wenwu Cui,79,RD  Computational Solutions,GPU phase II,798,50-0300,8,0,0,0,0,0,0,0,0,0,0,0,0,0,0,0,0,0,0,0,0,0,0,0,0,0,0,0,0,0,0
Wenwu Cui,79,RD  Computational Solutions,PMDA Submission support,830,50-0352,176,8,8,0,0,8,8,8,8,8,0,0,8,8,8,8,8,0,0,8,8,8,8,8,0,0,8,8,8,8,8
Katherine Shortt,80,Time Off,PTO,35,,3,0,0,0,0,0,0,0,0,0,0,0,0,0,0,0,0,0,0,0,0,0,0,0,0,0,0,0,0,0,0
Katherine Shortt,80,Operating  Training/Admin,Weekly meeting for operation,153,,22,0,2,0,0,0,1,1,0,2,0,0,1,1,1,3,1,0,0,2,1,1,0,4,0,0,0,0,0,0,0
Katherine Shortt,80,Operating  Training/Admin,Administration/Journal Club/Training,254,,26,2,2,0,0,0,1,0,1,2,0,0,1,2,2,3,2,0,0,1,2,2,2,1,0,0,0,0,0,0,0
Katherine Shortt,80,Operating  Training/Admin,Bioinformatics Department Trainings,321,,5,0,0,0,0,0,1,0,0,0,0,0,1,1,0,0,0,0,0,1,0,0,0,0,0,0,1,0,0,0,0
Katherine Shortt,80,Time Off,Sick Time,385,,13,0,0,0,0,0,0,0,5,0,0,0,4,0,0,0,0,0,0,0,0,0,0,0,0,0,0,0,0,4,0
Katherine Shortt,80,Time Off,Holiday,573,,8,0,0,0,0,8,0,0,0,0,0,0,0,0,0,0,0,0,0,0,0,0,0,0,0,0,0,0,0,0,0
Katherine Shortt,80,Operating  Training/Admin,Other tasks,662,,2,0,0,0,0,0,0,0,0,0,0,0,0,0,0,0,0,0,0,0,0,0,0,0,0,0,0,0,1,0,1
Katherine Shortt,80,Operation  Pipeline,"Scipher WTS. Project Code: BIDSCA 120380, Test/Product Code: 10060",686,BIDSCA 120380,11,2,1,0,0,0,2,1,1,0,0,0,0,0,0,0,1,0,0,1,0,0,0,0,0,0,0,0,0,0,1
Katherine Shortt,80,Operation  Clinical,Lifestrands Technical Transfer - Singapore,852,50-0293,4,0,0,0,0,0,1,1,0,0,0,0,0,1,0,0,0,0,0,0,1,0,0,0,0,0,0,0,0,0,0
Katherine Shortt,80,Operation  Clinical,Biocartis,864,,2,0,0,0,0,0,0,0,0,0,0,0,0,0,0,0,0,0,0,0,0,1,1,0,0,0,0,0,0,0,0
Katherine Shortt,80,Operation  Clinical,Project New Vision,872,50-0290,9,0,2,0,0,0,1,2,0,0,0,0,0,0,2,0,1,0,0,1,0,0,0,0,0,0,0,0,0,0,0
Katherine Shortt,80,RD  Existing Clinical Test,CancerNext V6,873,50-0380,51,4,1,0,0,0,1,3,1,4,0,0,1,3,3,2,3,0,0,2,4,4,5,3,0,0,0,0,2,0,2
Katherine Shortt,80,Operating  Training/Admin,Meetings,875,,7,0,0,0,0,0,0,0,0,0,0,0,0,0,0,0,0,0,0,0,0,0,0,0,0,0,1,3,0,0,3
Lily Hoang,81,Time Off,PTO,35,,48,0,0,0,0,0,0,0,0,0,0,0,0,0,0,0,8,0,0,8,8,8,8,8,0,0,0,0,0,0,0
Lily Hoang,81,Time Off,Sick day,356,,8,0,0,0,0,0,0,0,0,0,0,0,0,0,0,0,0,0,0,0,0,0,0,0,0,0,0,0,8,0,0
Lily Hoang,81,Operating  Training/Admin,Meetings,365,,29,1,2.5,0,0,0,2.5,0.5,3,2,0,0,2.5,3.5,3,2,0,0,0,0,0,0,0,0,0,0,0.5,3,0,0,0
Lily Hoang,81,Time Off,Holiday,573,,8,0,0,0,0,8,0,0,0,0,0,0,0,0,0,0,0,0,0,0,0,0,0,0,0,0,0,0,0,0,0
Lily Hoang,81,Operating  Training/Admin,Other tasks,662,,7,0,0,0,0,0,0,1,0,0,0,0,0.5,0,0,0,0,0,0,0,0,0,0,0,0,0,4.5,0,0,1,0
Lily Hoang,81,RD  Computational Solutions,CARE KB development,888,,18,3,3,0,0,0,2.5,3.5,0,2,0,0,0,0,0,4,0,0,0,0,0,0,0,0,0,0,0,0,0,0,0
Lily Hoang,81,Operation  Clinical,Clinical Operations Support,889,,20,0,0,0,0,0,0,0,2.5,4,0,0,1,1.5,2,1,0,0,0,0,0,0,0,0,0,0,0,3,0,5,0
Lily Hoang,81,RD  Computational Solutions,Phenom/ART/Capture,903,,40,4,2.5,0,0,0,3,3,2.5,0,0,0,4,3,3,1,0,0,0,0,0,0,0,0,0,0,4,2,0,2,0
Jason J. Li,83,Time Off,Holiday,573,,8,0,0,0,0,8,0,0,0,0,0,0,0,0,0,0,0,0,0,0,0,0,0,0,0,0,0,0,0,0,0
Jason J. Li,83,Operation  Pipeline,Monitor/Handle Production issues/Pipeline Maintenance,876,,176,8,8,0,0,0,8,8,8,8,0,0,8,8,8,8,8,0,0,8,8,8,8,8,0,0,8,8,8,8,8
