﻿Project Name,R&DID
10-0225 Exome QC Improvements,10-0225
Autocuration,15-0256
FDA Package,20-0004
Sauron Germline Critical Workflow Rescue,20-0103
[PT] RNAInsight V2,20-0125
20-0125 RNAinsight V2,20-0125
[PT] ctDNA pipeline   -dev,20-0132
[PT] Solid Tumor ctDNA panel,20-0132
Liquid biopsy,20-0132
Solid Tumor ctDNA panel,20-0132
Solid Tumor ctDNA panel with R&D ID 20-0132,20-0132
[PT] RNA-seq pipeline -val,20-0159
Post launch RNA v1 pipeline development,20-0159
RNA-seq pipeline -dev,20-0159
MagMax 20-0190,20-0190
[SB] Guided Variant Assessment,20-0191
[PT] TumorNext Lynch HRD v4,20-0236
CancerV5 migration to cloud,50-0258
Lihpao BI Pipeline Cloud Development,50-0258
Data integrity,50-0269
[PT] Germline pipeline updates,50-0279
HPO API,15-0230
ProMerch Validation,15-0254
20-0125 RNAinsight V2 ,20-0125
Code review for the RNAPCRseq,20-0125
AI4Variant,20-0132
ctDNA-pipeline,20-0132
Golden Helix Eval,20-0132
TumorNext v4,20-0236
AWS,50-0258
AWS Cloud/Data Migration,50-0258
Dragen pipeline evaluation,50-0279
[PT] Tumor Mutation Burden NGS pipeline  - dev,20-0132
FDA Accuracy Study,20-0004
FDA Cancer Panel Submission Study Design,20-0004
20-0125 RNAinsight V2 ,20-0125
HPO syndrome score,15-0230
PGDx-Elio Solid Tumor Panel,50-0289
AWS Transition,50-0258
GPU phase II,50-0300
GPUV2,50-0300
TSO500 ctDNA Validation,50-0302
